The Cross-Lagged Panel Model: A starting point for understanding longitudinal SEM – Konstantinos I. Bougioukas
…
​

# Load necessary libraries
library(lavaan)
library(tidySEM)
library(ggplot2)
library(dplyr)

# load the dataset
library(readr)
dat <- read_csv("WBIS_BMI.csv")
dat

# A tibble: 925 × 6
   WBIS_T1 WBIS_T2 WBIS_T3 BMI_T1 BMI_T2 BMI_T3
     <dbl>   <dbl>   <dbl>  <dbl>  <dbl>  <dbl>
 1    4.09    4.27    3.91   28.0   28.7   28.7
 2    6       5.82    6.55   20.3   20.3   19.9
 3    1.82    1.18    1      26.0   24.1   23.1
 4    6.64    6       6.27   26.5   26.5   26.5
 5    3.27    4.09    4.27   25.8   26.4   27.1
 6    2.91    2.27    3.55   24.4   24.0   24.5
 7    1.82    2.55    2.18   30.8   31.4   31.1
 8    5.73    5.73    6.18   26.9   25.8   26.3
 9    5.91    5.91    6.36   38.9   38.4   40.7
10    4.27    5       4.18   26.6   26.2   25.8
# ℹ 915 more rows
…
